00 Flexdashboard Walkthrough
…
Data cleaning, manipulation, etc can be performed in the background just showing the data insights on the dashboard.

Chunks will be given titles by using markdown header (###)

Packages

We use the flexdashboard and shiny packages to access the functions that allow you to build interactive plots in a dashboard.

library(tidyverse)
library(flexdashboard)
library(shiny)

mpg

## # A tibble: 234 x 11
##    manufacturer model    displ  year   cyl trans   drv     cty   hwy fl    class
##    <chr>        <chr>    <dbl> <int> <int> <chr>   <chr> <int> <int> <chr> <chr>
##  1 audi         a4         1.8  1999     4 auto(l f        18    29 p     comp
##  2 audi         a4         1.8  1999     4 manual f        21    29 p     comp
##  3 audi         a4         2    2008     4 manual f        20    31 p     comp
##  4 audi         a4         2    2008     4 auto(a f        21    30 p     comp
##  5 audi         a4         2.8  1999     6 auto(l f        16    26 p     comp
##  6 audi         a4         2.8  1999     6 manual f        18    26 p     comp
##  7 audi         a4         3.1  2008     6 auto(a f        18    27 p     comp
##  8 audi         a4 quat   1.8  1999     4 manual 4        18    26 p     comp
##  9 audi         a4 quat   1.8  1999     4 auto(l 4        16    25 p     comp
## 10 audi         a4 quat   2    2008     4 manual 4        20    28 p     comp
## #  with 224 more rows
…
Now group by manufacturer and fuel type and arrange the summary in descending order by average highway MPG.

mpg %>% 
  group_by(manufacturer, fl) %>% 
  summarize(
    n = n(), 
    avg_hwy = mean(hwy), 
    avg_cty = mean(cty)
  ) %>% 
  arrange(desc(avg_hwy))

## `summarise()` regrouping output by 'manufacturer' (override with `.groups` argument)

## # A tibble: 32 x 5
## # Groups:   manufacturer [15]
##    manufacturer fl        n avg_hwy avg_cty
##    <chr>        <chr> <int>   <dbl>   <dbl>
##  1 volkswagen   d         3    43      32.3
##  2 honda        c         1    36      24  
##  3 honda        r         6    33.2    25.3
##  4 honda        p         2    29      22  
##  5 volkswagen   p        11    28.1    19.6
##  6 pontiac      r         3    27      17.7
##  7 volkswagen   r        13    27      19.4
##  8 hyundai      r        14    26.9    18.6
##  9 audi         p        18    26.4    17.6
## 10 subaru       r        10    26      19.4
## #  with 22 more rows
…
